<?xml version="1.0" encoding="utf-8"?>
<!-- Generator: Adobe Illustrator 21.1.0, SVG Export Plug-In . SVG Version: 6.00 Build 0)  -->
<svg version="1.1" id="Calque_1" xmlns="http://www.w3.org/2000/svg" xmlns:xlink="http://www.w3.org/1999/xlink" x="0px" y="0px"
	 viewBox="0 0 200 96" style="enable-background:new 0 0 200 96;" xml:space="preserve">
<style type="text/css">
	.st0{fill:#CF000F;}
	.st1{fill:#FFFFFF;stroke:#CF000F;stroke-width:0.6245;stroke-miterlimit:10;}
	.st2{fill:#FFFFFF;}
	.st3{fill:#D10000;}
	.st4{fill:none;stroke:#D10000;stroke-width:1.476;stroke-linecap:round;stroke-miterlimit:10;}
	.st5{fill:none;stroke:#FFFFFF;stroke-width:0.9814;stroke-miterlimit:10;}
	.st6{fill:none;stroke:#CF000F;stroke-width:2.8346;stroke-miterlimit:10;}
	.st7{clip-path:url(#SVGID_2_);fill:#FFFFFF;}
</style>
<g>
	<ellipse transform="matrix(0.2052 -0.9787 0.9787 0.2052 32.6855 135.8671)" class="st0" cx="100" cy="47.8" rx="47" ry="47"/>
	<g>
		<g>
			<g>
				<path class="st1" d="M99.4,9.3l0.6,0.9l0.4-0.6c0.6-0.8,1.1-1.6,1.7-2.5c0.6-0.9,0.6-2,0-2.8l0,0c-1-1.5-3.1-1.5-4.1,0l0,0
					c-0.6,0.8-0.6,2,0,2.8C98.4,7.8,98.9,8.6,99.4,9.3z"/>
				<path class="st1" d="M100.6,86.3l-0.6-0.9L99.6,86c-0.6,0.8-1.1,1.6-1.7,2.5c-0.6,0.9-0.6,2,0,2.8l0,0c1,1.5,3.1,1.5,4.1,0l0,0
					c0.6-0.8,0.6-2,0-2.8C101.6,87.8,101.1,87,100.6,86.3z"/>
				<path class="st1" d="M138.5,47.2l-0.9,0.6l0.6,0.4c0.8,0.6,1.6,1.1,2.5,1.7c0.9,0.6,2,0.6,2.8,0l0,0c1.5-1,1.5-3.1,0-4.1l0,0
					c-0.8-0.6-2-0.6-2.8,0C140,46.2,139.2,46.7,138.5,47.2z"/>
				<path class="st1" d="M61.5,48.4l0.9-0.6l-0.6-0.4c-0.8-0.6-1.6-1.1-2.5-1.7c-0.9-0.6-2-0.6-2.8,0l0,0c-1.5,1-1.5,3.1,0,4.1l0,0
					c0.8,0.6,2,0.6,2.8,0C60,49.4,60.8,48.9,61.5,48.4z"/>
				<path class="st1" d="M126.8,20.2l-0.2,1l0.7-0.1c1-0.2,2-0.4,2.9-0.6c1-0.2,1.8-1,2-2l0-0.1c0.3-1.7-1.2-3.3-2.9-2.9l-0.1,0
					c-1,0.2-1.8,1-2,2C127.1,18.4,127,19.3,126.8,20.2z"/>
				<path class="st1" d="M73.2,75.4l0.2-1l-0.7,0.1c-1,0.2-2,0.4-2.9,0.6c-1,0.2-1.8,1-2,2l0,0.1c-0.3,1.7,1.2,3.3,2.9,2.9l0.1,0
					c1-0.2,1.8-1,2-2C72.9,77.2,73,76.3,73.2,75.4z"/>
				<path class="st1" d="M127.6,74.6l-1-0.2l0.1,0.7c0.2,1,0.4,2,0.6,2.9c0.2,1,1,1.8,2,2l0.1,0c1.7,0.3,3.3-1.2,2.9-2.9l0-0.1
					c-0.2-1-1-1.8-2-2C129.4,74.9,128.5,74.8,127.6,74.6z"/>
				<path class="st1" d="M72.4,21l1,0.2l-0.1-0.7c-0.2-1-0.4-2-0.6-2.9c-0.2-1-1-1.8-2-2l-0.1,0c-1.7-0.3-3.3,1.2-2.9,2.9l0,0.1
					c0.2,1,1,1.8,2,2C70.6,20.7,71.5,20.8,72.4,21z"/>
			</g>
			<g>
				<path class="st1" d="M114.6,12.2l0.2,1l0.6-0.4c0.8-0.5,1.7-1.1,2.5-1.6c0.9-0.6,1.3-1.6,1.1-2.6l0-0.1
					c-0.3-1.7-2.3-2.6-3.8-1.6l0,0c-0.9,0.6-1.3,1.6-1.1,2.6C114.3,10.4,114.4,11.3,114.6,12.2z"/>
				<path class="st1" d="M85.4,83.4l-0.2-1l-0.6,0.4c-0.8,0.5-1.7,1.1-2.5,1.6c-0.9,0.6-1.3,1.6-1.1,2.6l0,0.1
					c0.3,1.7,2.3,2.6,3.8,1.6l0,0c0.9-0.6,1.3-1.6,1.1-2.6C85.7,85.2,85.6,84.3,85.4,83.4z"/>
				<path class="st1" d="M135.6,62.4l-1,0.2l0.4,0.6c0.5,0.8,1.1,1.7,1.6,2.5c0.6,0.9,1.6,1.3,2.6,1.1l0.1,0
					c1.7-0.3,2.6-2.3,1.6-3.8l0,0c-0.6-0.9-1.6-1.3-2.6-1.1C137.4,62.1,136.5,62.2,135.6,62.4z"/>
				<path class="st1" d="M64.4,33.2l1-0.2L65,32.4c-0.5-0.8-1.1-1.7-1.6-2.5c-0.6-0.9-1.6-1.3-2.6-1.1l-0.1,0
					c-1.7,0.3-2.6,2.3-1.6,3.8l0,0c0.6,0.9,1.6,1.3,2.6,1.1C62.6,33.5,63.5,33.4,64.4,33.2z"/>
				<path class="st1" d="M135.5,33l-0.6,0.9l0.7,0.2c1,0.2,1.9,0.4,2.9,0.6c1,0.2,2-0.2,2.6-1l0,0c1-1.5,0.2-3.5-1.5-3.8l-0.1,0
					c-1-0.2-2,0.2-2.6,1C136.5,31.5,136,32.2,135.5,33z"/>
				<path class="st1" d="M64.5,62.7l0.6-0.9l-0.7-0.2c-1-0.2-1.9-0.4-2.9-0.6c-1-0.2-2,0.2-2.6,1l0,0c-1,1.5-0.2,3.5,1.5,3.8l0.1,0
					c1,0.2,2-0.2,2.6-1C63.5,64.1,64,63.4,64.5,62.7z"/>
				<path class="st1" d="M114.8,83.3l-0.9-0.6l-0.2,0.7c-0.2,1-0.4,1.9-0.6,2.9c-0.2,1,0.2,2,1,2.6l0,0c1.5,1,3.5,0.2,3.8-1.5l0-0.1
					c0.2-1-0.2-2-1-2.6C116.3,84.3,115.6,83.8,114.8,83.3z"/>
				<path class="st1" d="M85.2,12.3l0.9,0.6l0.2-0.7c0.2-1,0.4-1.9,0.6-2.9c0.2-1-0.2-2-1-2.6l0,0c-1.5-1-3.5-0.2-3.8,1.5l0,0.1
					c-0.2,1,0.2,2,1,2.6C83.7,11.3,84.4,11.8,85.2,12.3z"/>
			</g>
		</g>
		<path class="st1" d="M92.4,4.7l-0.8-0.8l-0.3,0.7c-0.4,0.9-0.8,1.8-1.2,2.7c-0.4,0.9-0.2,2,0.5,2.8l0,0c1.3,1.2,3.4,0.8,4.1-0.8
			l0,0c0.4-0.9,0.2-2-0.5-2.8C93.6,6,93,5.3,92.4,4.7z"/>
		<path class="st1" d="M76.5,10.8l-1-0.4l0,0.8c0,1,0,2-0.1,3c0,1,0.6,2,1.5,2.4l0.1,0c1.6,0.7,3.4-0.5,3.5-2.3l0-0.1
			c0-1-0.6-2-1.5-2.4C78.2,11.5,77.4,11.2,76.5,10.8z"/>
		<path class="st1" d="M64.2,22.7l-1.1,0l0.3,0.7c0.4,0.9,0.7,1.9,1.1,2.8c0.4,1,1.3,1.6,2.3,1.6l0.1,0c1.8,0,3-1.8,2.3-3.4l0-0.1
			c-0.4-1-1.3-1.6-2.3-1.6C66,22.7,65.1,22.7,64.2,22.7z"/>
		<path class="st1" d="M57.3,38.1l-1,0.4l0.5,0.5c0.7,0.7,1.4,1.4,2.1,2.2c0.7,0.7,1.8,1,2.8,0.6l0.1,0c1.6-0.7,2.1-2.8,0.9-4.1l0,0
			c-0.7-0.7-1.8-1-2.8-0.6C59,37.5,58.1,37.8,57.3,38.1z"/>
		<path class="st1" d="M56.9,55.7l-0.7,0.8l0.7,0.3c0.9,0.4,1.8,0.8,2.7,1.2c0.9,0.4,2,0.2,2.8-0.5l0,0c1.2-1.3,0.8-3.4-0.8-4.1
			l-0.1,0c-0.9-0.4-2-0.2-2.8,0.5C58.2,54.5,57.6,55.1,56.9,55.7z"/>
		<path class="st1" d="M63.2,71.5l-0.4,1l0.8,0c1,0,2,0,3,0c1,0,2-0.6,2.4-1.6l0-0.1c0.7-1.6-0.5-3.4-2.3-3.5l-0.1,0
			c-1,0-2,0.6-2.3,1.6C63.9,69.8,63.5,70.7,63.2,71.5z"/>
		<path class="st1" d="M75.1,83.8l0,1.1l0.7-0.3c0.9-0.4,1.8-0.7,2.8-1.1c1-0.4,1.6-1.3,1.6-2.3l0-0.1c0-1.8-1.8-3-3.4-2.3l-0.1,0
			c-1,0.4-1.6,1.3-1.6,2.3C75.1,82,75.1,82.9,75.1,83.8z"/>
		<path class="st1" d="M90.6,90.6l0.4,1l0.5-0.5c0.7-0.7,1.4-1.4,2.1-2.1c0.7-0.7,1-1.8,0.6-2.8l0-0.1c-0.7-1.6-2.8-2.1-4.1-0.8l0,0
			c-0.7,0.7-1,1.8-0.6,2.8C89.9,88.9,90.3,89.7,90.6,90.6z"/>
		<path class="st1" d="M107.5,90.9l0.8,0.8l0.3-0.7c0.4-0.9,0.8-1.8,1.2-2.7c0.4-0.9,0.2-2-0.5-2.8l0,0c-1.2-1.3-3.4-0.9-4.1,0.8
			l0,0c-0.4,0.9-0.2,2,0.5,2.8C106.2,89.7,106.8,90.3,107.5,90.9z"/>
		<path class="st1" d="M123.3,84.9l1,0.4l0-0.8c0-1,0-2,0.1-3c0-1-0.6-2-1.5-2.4l-0.1,0c-1.6-0.7-3.4,0.5-3.5,2.3l0,0.1
			c0,1,0.6,2,1.5,2.4C121.7,84.2,122.5,84.5,123.3,84.9z"/>
		<path class="st1" d="M135.7,73.1l1.1,0l-0.3-0.7c-0.4-0.9-0.7-1.9-1.1-2.8c-0.4-1-1.3-1.6-2.3-1.6l-0.1,0c-1.8,0-3,1.8-2.3,3.4
			l0,0.1c0.4,1,1.3,1.6,2.3,1.6C133.9,73.1,134.8,73.1,135.7,73.1z"/>
		<path class="st1" d="M142.7,57.6l1-0.4l-0.5-0.5c-0.7-0.7-1.4-1.4-2.1-2.2c-0.7-0.7-1.8-1-2.8-0.6l-0.1,0c-1.6,0.7-2.1,2.8-0.9,4
			l0,0c0.7,0.7,1.8,1,2.8,0.6C141,58.3,141.8,58,142.7,57.6z"/>
		<path class="st1" d="M143.1,40.1l0.8-0.8l-0.7-0.3c-0.9-0.4-1.8-0.8-2.7-1.2c-0.9-0.4-2-0.2-2.8,0.5l0,0c-1.2,1.3-0.8,3.4,0.8,4.1
			l0.1,0c0.9,0.4,2,0.2,2.8-0.5C141.8,41.3,142.5,40.7,143.1,40.1z"/>
		<path class="st1" d="M136.9,24.3l0.4-1l-0.8,0c-1,0-2,0-3,0c-1,0-2,0.6-2.4,1.5l0,0.1c-0.7,1.6,0.5,3.4,2.3,3.5l0.1,0
			c1,0,2-0.6,2.4-1.5C136.2,25.9,136.6,25.1,136.9,24.3z"/>
		<path class="st1" d="M125.1,11.9l0-1.1l-0.7,0.3c-0.9,0.4-1.9,0.7-2.8,1.1c-1,0.4-1.6,1.3-1.6,2.3l0,0.1c0,1.8,1.8,3,3.4,2.3
			l0.1,0c1-0.4,1.6-1.3,1.6-2.3C125.1,13.7,125.1,12.8,125.1,11.9z"/>
		<path class="st1" d="M109.6,5.1l-0.4-1l-0.5,0.5c-0.7,0.7-1.4,1.4-2.1,2.1c-0.7,0.7-1,1.8-0.6,2.8l0,0.1c0.7,1.6,2.8,2.1,4.1,0.8
			l0,0c0.7-0.7,1-1.8,0.6-2.8C110.2,6.7,109.9,5.9,109.6,5.1z"/>
	</g>
	<g>
		<g>
			<path class="st2" d="M99.9,28.7c4.1,0,7.6,2.7,8.8,6.3c1.4,0.3,2.7,0.9,3.8,1.7c-0.6-6.4-6-11.5-12.6-11.5
				c-6.6,0-12,5.1-12.6,11.6c1.1-0.9,2.4-1.6,3.8-1.8C92.3,31.3,95.8,28.7,99.9,28.7z"/>
			<path class="st2" d="M116.4,43.8c-0.9-3.8-4.2-6.6-8.1-6.8c-0.2,0-0.4,0-0.7,0c-2.9,0-5.3,1.2-7.2,3.5c-0.2,0.2-0.4,0.5-0.5,0.7
				c-0.3-0.5-0.6-0.9-1-1.4c-1.8-1.9-4-2.9-6.6-2.9c-0.4,0-0.7,0-1.1,0.1c-2.1,0.2-4,1.1-5.5,2.7c-2,2.1-2.8,4.6-2.5,7.5
				c0.2,1.9,1,3.5,2.3,4.9c0.4,0.4,0.7,0.7,1.1,1.1l0.7,0.7c0,0,3.9,3.9,4.9,4.9l6.4,6.4l0,0.3l0.4,0.2l0.6,0.7l0.4-0.3l0.1,0
				l0.6-0.5l0.5-0.3v-0.1c4.1-4.1,8.3-8.3,12.4-12.4c0.1-0.1,0.1-0.1,0.2-0.2c0.3-0.3,0.6-0.6,0.9-0.9
				C116.6,49.2,117.1,46.6,116.4,43.8z M101.8,55.1h-3.3l1-6.5c-0.7-0.3-1.2-1-1-1.9c0.1-0.7,0.7-1.3,1.4-1.4c1.1-0.2,2,0.6,2,1.7
				c0,0.7-0.4,1.3-1.1,1.6L101.8,55.1z"/>
			<path class="st3" d="M98.1,67.1l-0.8-0.4l-0.1-0.6l-6.2-6.2c-1-1-5-5-5-5l-0.7-0.7c-0.4-0.4-0.8-0.8-1.1-1.1
				c-1.6-1.6-2.5-3.5-2.8-5.8c-0.5-3.4,0.5-6.5,2.9-8.9c1.8-1.8,4-2.9,6.5-3.2c0.4,0,0.9-0.1,1.3-0.1c3,0,5.7,1.2,7.8,3.4
				c2.1-2.2,4.7-3.4,7.8-3.4c0.3,0,0.5,0,0.8,0c4.6,0.3,8.6,3.6,9.6,8.1c0.8,3.3,0.1,6.4-1.9,9.1c-0.4,0.5-0.7,0.8-1,1.1l-0.2,0.2
				c-4.1,4.1-8.2,8.2-12.2,12.3v0.3l-1.1,0.7l-1.2,1.1l-0.3-0.1l-1,0.7L98.1,67.1z M100.2,46.6c-0.1,0-0.3,0.1-0.3,0.3
				c0,0.1,0.1,0.2,0.2,0.2l0.1,0l0.1,0c0.1,0,0.2-0.1,0.2-0.2C100.4,46.7,100.3,46.6,100.2,46.6z"/>
			<path class="st2" d="M116.4,43.8c-0.9-3.8-4.2-6.6-8.1-6.8c-0.2,0-0.4,0-0.7,0c-2.9,0-5.3,1.2-7.2,3.5c-0.2,0.2-0.4,0.5-0.5,0.7
				c-0.3-0.5-0.6-0.9-1-1.4c-1.8-1.9-4-2.9-6.6-2.9c-0.4,0-0.7,0-1.1,0.1c-2.1,0.2-4,1.1-5.5,2.7c-2,2.1-2.8,4.6-2.5,7.5
				c0.2,1.9,1,3.5,2.3,4.9c0.4,0.4,0.7,0.7,1.1,1.1l0.7,0.7c0,0,3.9,3.9,4.9,4.9l6.4,6.4l1.4,1.3l1.2-1.3c4.1-4.1,8.3-8.3,12.4-12.4
				c0.1-0.1,0.1-0.1,0.2-0.2c0.3-0.3,0.6-0.6,0.9-0.9C116.6,49.2,117.1,46.6,116.4,43.8z M102.5,56.8h-4.6l1.4-8.1
				c-1-0.4-1.7-1.5-1.4-2.8c0.2-0.9,0.9-1.6,1.8-1.8c1.6-0.4,3,0.8,3,2.3c0,1-0.6,1.8-1.5,2.2L102.5,56.8z"/>
		</g>
		<path class="st4" d="M92.8,39.5c-0.3,0-0.5,0-0.8,0c-1.6,0.2-2.9,0.8-4,2c-1.5,1.5-2.1,3.4-1.8,5.5"/>
	</g>
	<circle class="st5" cx="100" cy="47.8" r="35.4"/>
</g>
<g>
	<line class="st6" x1="167.3" y1="47.2" x2="199.3" y2="47.2"/>
	<line class="st6" x1="0.7" y1="47.2" x2="32.7" y2="47.2"/>
</g>
</svg>
