<?xml version="1.0" encoding="utf-8"?>
<!-- Generator: Adobe Illustrator 21.1.0, SVG Export Plug-In . SVG Version: 6.00 Build 0)  -->
<svg version="1.1" id="Calque_1" xmlns="http://www.w3.org/2000/svg" xmlns:xlink="http://www.w3.org/1999/xlink" x="0px" y="0px"
	 viewBox="0 0 200 96" style="enable-background:new 0 0 200 96;" xml:space="preserve">
<style type="text/css">
	.st0{fill:#CF000F;}
	.st1{fill:#FFFFFF;stroke:#CF000F;stroke-width:0.6245;stroke-miterlimit:10;}
	.st2{fill:#FFFFFF;}
	.st3{fill:#D10000;}
	.st4{fill:none;stroke:#D10000;stroke-width:1.476;stroke-linecap:round;stroke-miterlimit:10;}
	.st5{fill:none;stroke:#FFFFFF;stroke-width:0.9814;stroke-miterlimit:10;}
	.st6{fill:none;stroke:#CF000F;stroke-width:2.8346;stroke-miterlimit:10;}
	.st7{clip-path:url(#SVGID_2_);fill:#FFFFFF;}
</style>
<g>
	<line class="st6" x1="167.3" y1="47.2" x2="199.3" y2="47.2"/>
	<line class="st6" x1="0.7" y1="47.2" x2="32.7" y2="47.2"/>
</g>
<g>
	<ellipse transform="matrix(0.2052 -0.9787 0.9787 0.2052 32.6855 135.8671)" class="st3" cx="100" cy="47.8" rx="47" ry="47"/>
	<g>
		<g>
			<g>
				<g>
					<path class="st2" d="M99.4,9.3l0.6,0.9l0.4-0.6c0.6-0.8,1.1-1.6,1.7-2.5c0.6-0.9,0.6-2,0-2.8l0,0c-1-1.5-3.1-1.5-4.1,0l0,0
						c-0.6,0.8-0.6,2,0,2.8C98.4,7.8,98.9,8.6,99.4,9.3z"/>
					<path class="st3" d="M100,10.8l-2.4-3.5c-0.7-1-0.7-2.2,0-3.2c0.6-0.8,1.4-1.3,2.4-1.3c0,0,0,0,0,0c0.9,0,1.8,0.5,2.3,1.2
						c0.7,1,0.7,2.3,0,3.2L100,10.8z M99.7,9.1l0.3,0.5l1.8-2.7c0.5-0.8,0.5-1.7,0-2.5c-0.4-0.7-1.1-1-1.8-1c0,0,0,0,0,0
						c-0.7,0-1.4,0.4-1.8,1c-0.5,0.8-0.5,1.8,0,2.5L99.7,9.1z"/>
				</g>
				<g>
					<path class="st2" d="M100.6,86.3l-0.6-0.9L99.6,86c-0.6,0.8-1.1,1.6-1.7,2.5c-0.6,0.9-0.6,2,0,2.8l0,0c1,1.5,3.1,1.5,4.1,0l0,0
						c0.6-0.8,0.6-2,0-2.8C101.6,87.8,101.1,87,100.6,86.3z"/>
					<path class="st3" d="M100,92.8c-0.9,0-1.8-0.5-2.3-1.2c-0.7-1-0.7-2.3,0-3.2l2.4-3.5l2.4,3.5c0.7,1,0.7,2.2,0,3.2
						C101.8,92.3,100.9,92.8,100,92.8C100,92.8,100,92.8,100,92.8z M100,86l-1.8,2.7c-0.5,0.8-0.5,1.7,0,2.5c0.4,0.7,1.1,1,1.8,1
						c0,0,0,0,0,0c0.7,0,1.4-0.4,1.8-1c0.5-0.8,0.5-1.8,0-2.5L100,86z"/>
				</g>
				<g>
					<path class="st2" d="M138.5,47.2l-0.9,0.6l0.6,0.4c0.8,0.6,1.6,1.1,2.5,1.7c0.9,0.6,2,0.6,2.8,0l0,0c1.5-1,1.5-3.1,0-4.1l0,0
						c-0.8-0.6-2-0.6-2.8,0C140,46.2,139.2,46.7,138.5,47.2z"/>
					<path class="st3" d="M142.1,50.7c-0.6,0-1.1-0.2-1.6-0.5l-3.5-2.4l3.5-2.4c1-0.7,2.2-0.7,3.2,0c0.8,0.6,1.3,1.4,1.3,2.4
						s-0.5,1.8-1.2,2.3C143.2,50.5,142.7,50.7,142.1,50.7z M138.2,47.8l2.7,1.8c0.8,0.5,1.7,0.5,2.5,0c0.7-0.4,1-1.1,1-1.8
						c0-0.7-0.4-1.4-1-1.8c-0.8-0.5-1.8-0.5-2.5,0L138.2,47.8z"/>
				</g>
				<g>
					<path class="st2" d="M61.5,48.4l0.9-0.6l-0.6-0.4c-0.8-0.6-1.6-1.1-2.5-1.7c-0.9-0.6-2-0.6-2.8,0l0,0c-1.5,1-1.5,3.1,0,4.1l0,0
						c0.8,0.6,2,0.6,2.8,0C60,49.4,60.8,48.9,61.5,48.4z"/>
					<path class="st3" d="M57.9,50.7c-0.6,0-1.1-0.2-1.6-0.5c-0.8-0.6-1.3-1.4-1.3-2.4c0-0.9,0.5-1.8,1.2-2.3c1-0.7,2.3-0.7,3.2,0
						l3.5,2.4l-3.5,2.4C59,50.5,58.4,50.7,57.9,50.7z M57.9,45.6c-0.4,0-0.9,0.1-1.2,0.4c-0.7,0.4-1,1.1-1,1.8c0,0.7,0.4,1.4,1,1.8
						c0.8,0.5,1.8,0.5,2.5,0l2.7-1.8L59.1,46C58.8,45.7,58.3,45.6,57.9,45.6z"/>
				</g>
				<g>
					<path class="st2" d="M126.8,20.2l-0.2,1l0.7-0.1c1-0.2,2-0.4,2.9-0.6c1-0.2,1.8-1,2-2l0-0.1c0.3-1.7-1.2-3.3-2.9-2.9l-0.1,0
						c-1,0.2-1.8,1-2,2C127.1,18.4,127,19.3,126.8,20.2z"/>
					<path class="st3" d="M126.2,21.6l0.8-4.1c0.2-1.1,1.1-2,2.2-2.2c1-0.2,1.9,0.1,2.6,0.8c0.7,0.7,1,1.6,0.8,2.5
						c-0.2,1.2-1.1,2.1-2.3,2.3L126.2,21.6z M127.1,20.2l-0.1,0.6l3.2-0.6c0.9-0.2,1.6-0.9,1.7-1.7c0.1-0.8-0.1-1.5-0.6-2
						c-0.5-0.5-1.2-0.7-2-0.6c-0.9,0.2-1.6,0.9-1.8,1.8L127.1,20.2z"/>
				</g>
				<g>
					<path class="st2" d="M73.2,75.4l0.2-1l-0.7,0.1c-1,0.2-2,0.4-2.9,0.6c-1,0.2-1.8,1-2,2l0,0.1c-0.3,1.7,1.2,3.3,2.9,2.9l0.1,0
						c1-0.2,1.8-1,2-2C72.9,77.2,73,76.3,73.2,75.4z"/>
					<path class="st3" d="M70.2,80.4c-0.8,0-1.5-0.3-2-0.8c-0.7-0.7-1-1.6-0.8-2.5c0.2-1.2,1.1-2.1,2.3-2.3l4.1-0.8L73,78.1
						c-0.2,1.1-1.1,2-2.2,2.2C70.6,80.4,70.4,80.4,70.2,80.4z M73,74.8l-3.2,0.6c-0.9,0.2-1.6,0.9-1.7,1.7c-0.1,0.8,0.1,1.5,0.6,2
						c0.5,0.5,1.2,0.7,2,0.6c0.9-0.2,1.6-0.9,1.8-1.8L73,74.8z"/>
				</g>
				<g>
					<path class="st2" d="M127.6,74.6l-1-0.2l0.1,0.7c0.2,1,0.4,2,0.6,2.9c0.2,1,1,1.8,2,2l0.1,0c1.7,0.3,3.3-1.2,2.9-2.9l0-0.1
						c-0.2-1-1-1.8-2-2C129.4,74.9,128.5,74.8,127.6,74.6z"/>
					<path class="st3" d="M129.8,80.4c-0.2,0-0.4,0-0.5,0c-1.2-0.2-2.1-1.1-2.3-2.3l-0.8-4.1l4.1,0.8c1.1,0.2,2,1.1,2.2,2.2
						c0.2,1-0.1,1.9-0.8,2.6C131.3,80.1,130.5,80.4,129.8,80.4z M127,74.8l0.6,3.2c0.2,0.9,0.9,1.6,1.7,1.7c0.8,0.1,1.5-0.1,2-0.6
						c0.5-0.5,0.7-1.2,0.6-2c-0.2-0.9-0.9-1.6-1.8-1.8L127,74.8z"/>
				</g>
				<g>
					<path class="st2" d="M72.4,21l1,0.2l-0.1-0.7c-0.2-1-0.4-2-0.6-2.9c-0.2-1-1-1.8-2-2l-0.1,0c-1.7-0.3-3.3,1.2-2.9,2.9l0,0.1
						c0.2,1,1,1.8,2,2C70.6,20.7,71.5,20.8,72.4,21z"/>
					<path class="st3" d="M73.8,21.6l-4.1-0.8c-1.1-0.2-2-1.1-2.2-2.2c-0.2-1,0.1-1.9,0.8-2.6c0.7-0.7,1.6-0.9,2.5-0.8
						c1.2,0.2,2.1,1.1,2.3,2.3L73.8,21.6z M72.4,20.7l0.6,0.1l-0.6-3.2c-0.2-0.9-0.9-1.6-1.7-1.7c-0.8-0.1-1.5,0.1-2,0.6
						c-0.5,0.5-0.7,1.2-0.6,2c0.2,0.9,0.9,1.6,1.8,1.8L72.4,20.7z"/>
				</g>
			</g>
			<g>
				<g>
					<path class="st2" d="M114.6,12.2l0.2,1l0.6-0.4c0.8-0.5,1.7-1.1,2.5-1.6c0.9-0.6,1.3-1.6,1.1-2.6l0-0.1
						c-0.3-1.7-2.3-2.6-3.8-1.6l0,0c-0.9,0.6-1.3,1.6-1.1,2.6C114.3,10.4,114.4,11.3,114.6,12.2z"/>
					<path class="st3" d="M114.6,13.8l-0.8-4.1c-0.2-1.1,0.3-2.3,1.2-2.9c0.8-0.5,1.8-0.6,2.7-0.2c0.9,0.4,1.5,1.1,1.7,2
						c0.2,1.2-0.3,2.3-1.2,3L114.6,13.8z M114.9,12.1l0.1,0.6l2.8-1.8c0.8-0.5,1.1-1.4,1-2.3c-0.2-0.8-0.6-1.4-1.3-1.6
						c-0.7-0.3-1.4-0.2-2,0.2c-0.8,0.5-1.2,1.4-1,2.3L114.9,12.1z"/>
				</g>
				<g>
					<path class="st2" d="M85.4,83.4l-0.2-1l-0.6,0.4c-0.8,0.5-1.7,1.1-2.5,1.6c-0.9,0.6-1.3,1.6-1.1,2.6l0,0.1
						c0.3,1.7,2.3,2.6,3.8,1.6l0,0c0.9-0.6,1.3-1.6,1.1-2.6C85.7,85.2,85.6,84.3,85.4,83.4z"/>
					<path class="st3" d="M83.4,89.4c-0.4,0-0.7-0.1-1.1-0.2c-0.9-0.4-1.5-1.1-1.7-2c-0.2-1.2,0.3-2.3,1.2-3l3.5-2.3l0.8,4.1
						c0.2,1.1-0.3,2.3-1.2,2.9C84.5,89.2,83.9,89.4,83.4,89.4z M85,82.9l-2.8,1.8c-0.8,0.5-1.1,1.4-1,2.3c0.2,0.8,0.6,1.4,1.3,1.6
						c0.7,0.3,1.4,0.2,2-0.2c0.8-0.5,1.2-1.4,1-2.3L85,82.9z"/>
				</g>
				<g>
					<path class="st2" d="M135.6,62.4l-1,0.2l0.4,0.6c0.5,0.8,1.1,1.7,1.6,2.5c0.6,0.9,1.6,1.3,2.6,1.1l0.1,0
						c1.7-0.3,2.6-2.3,1.6-3.8l0,0c-0.6-0.9-1.6-1.3-2.6-1.1C137.4,62.1,136.5,62.2,135.6,62.4z"/>
					<path class="st3" d="M138.7,67.2c-1,0-1.9-0.5-2.4-1.3l-2.3-3.5l4.1-0.8c1.1-0.2,2.3,0.3,2.9,1.2c0.5,0.8,0.6,1.8,0.2,2.7
						c-0.4,0.9-1.1,1.5-2,1.7C139.1,67.2,138.9,67.2,138.7,67.2z M135.1,62.8l1.8,2.8c0.5,0.8,1.4,1.1,2.3,1
						c0.8-0.2,1.4-0.6,1.6-1.3c0.3-0.7,0.2-1.4-0.2-2c-0.5-0.8-1.4-1.2-2.3-1L135.1,62.8z"/>
				</g>
				<g>
					<path class="st2" d="M64.4,33.2l1-0.2L65,32.4c-0.5-0.8-1.1-1.7-1.6-2.5c-0.6-0.9-1.6-1.3-2.6-1.1l-0.1,0
						c-1.7,0.3-2.6,2.3-1.6,3.8l0,0c0.6,0.9,1.6,1.3,2.6,1.1C62.6,33.5,63.5,33.4,64.4,33.2z"/>
					<path class="st3" d="M61.3,34.1c-0.9,0-1.8-0.5-2.4-1.3c-0.5-0.8-0.6-1.8-0.2-2.7c0.4-0.9,1.1-1.5,2-1.7c1.2-0.2,2.3,0.3,3,1.2
						l2.3,3.5L61.8,34C61.6,34,61.5,34.1,61.3,34.1z M61.3,29c-0.1,0-0.3,0-0.4,0c-0.8,0.2-1.4,0.6-1.6,1.3c-0.3,0.7-0.2,1.4,0.2,2
						c0.5,0.8,1.4,1.2,2.3,1l3.2-0.6L63.2,30C62.7,29.4,62.1,29,61.3,29z"/>
				</g>
				<g>
					<path class="st2" d="M135.5,33l-0.6,0.9l0.7,0.2c1,0.2,1.9,0.4,2.9,0.6c1,0.2,2-0.2,2.6-1l0,0c1-1.5,0.2-3.5-1.5-3.8l-0.1,0
						c-1-0.2-2,0.2-2.6,1C136.5,31.5,136,32.2,135.5,33z"/>
					<path class="st3" d="M139.1,35c-0.2,0-0.4,0-0.6-0.1l-4.1-0.9l2.4-3.5c0.7-1,1.8-1.4,2.9-1.2c1,0.2,1.7,0.8,2.1,1.7
						c0.3,0.9,0.2,1.8-0.3,2.6C140.9,34.6,140,35,139.1,35z M135.4,33.6l3.2,0.7c0.9,0.2,1.8-0.2,2.3-0.9c0.4-0.7,0.5-1.4,0.2-2.1
						c-0.3-0.7-0.8-1.2-1.6-1.3c-0.9-0.2-1.8,0.2-2.3,0.9L135.4,33.6z"/>
				</g>
				<g>
					<path class="st2" d="M64.5,62.7l0.6-0.9l-0.7-0.2c-1-0.2-1.9-0.4-2.9-0.6c-1-0.2-2,0.2-2.6,1l0,0c-1,1.5-0.2,3.5,1.5,3.8l0.1,0
						c1,0.2,2-0.2,2.6-1C63.5,64.1,64,63.4,64.5,62.7z"/>
					<path class="st3" d="M60.9,66.3c-0.2,0-0.4,0-0.6-0.1c-1-0.2-1.7-0.8-2.1-1.7c-0.3-0.9-0.2-1.8,0.3-2.6c0.7-1,1.8-1.5,3-1.2
						l4.1,0.9L63.2,65C62.7,65.8,61.8,66.3,60.9,66.3z M60.9,61.2c-0.7,0-1.4,0.4-1.8,1c-0.4,0.7-0.5,1.4-0.2,2.1
						c0.3,0.7,0.8,1.2,1.6,1.3c0.9,0.2,1.8-0.2,2.3-0.9l1.8-2.7l-3.2-0.7C61.2,61.2,61,61.2,60.9,61.2z"/>
				</g>
				<g>
					<path class="st2" d="M114.8,83.3l-0.9-0.6l-0.2,0.7c-0.2,1-0.4,1.9-0.6,2.9c-0.2,1,0.2,2,1,2.6l0,0c1.5,1,3.5,0.2,3.8-1.5
						l0-0.1c0.2-1-0.2-2-1-2.6C116.3,84.3,115.6,83.8,114.8,83.3z"/>
					<path class="st3" d="M115.7,89.8c-0.6,0-1.1-0.2-1.6-0.5c-1-0.7-1.5-1.8-1.2-3l0.9-4.1l3.5,2.4c1,0.7,1.4,1.8,1.2,2.9
						c-0.2,1-0.8,1.7-1.7,2.1C116.4,89.7,116,89.8,115.7,89.8z M114.2,83.2l-0.7,3.2c-0.2,0.9,0.2,1.8,0.9,2.3
						c0.7,0.4,1.4,0.5,2.1,0.2c0.7-0.3,1.2-0.8,1.3-1.6c0.2-0.9-0.2-1.8-0.9-2.3L114.2,83.2z"/>
				</g>
				<g>
					<path class="st2" d="M85.2,12.3l0.9,0.6l0.2-0.7c0.2-1,0.4-1.9,0.6-2.9c0.2-1-0.2-2-1-2.6l0,0c-1.5-1-3.5-0.2-3.8,1.5l0,0.1
						c-0.2,1,0.2,2,1,2.6C83.7,11.3,84.4,11.8,85.2,12.3z"/>
					<path class="st3" d="M86.2,13.4l-3.5-2.4c-1-0.7-1.4-1.8-1.2-2.9c0.2-1,0.8-1.7,1.7-2.1c0.9-0.3,1.8-0.2,2.6,0.3
						c1,0.7,1.5,1.8,1.2,3L86.2,13.4z M84.3,6.5c-0.3,0-0.5,0.1-0.8,0.2c-0.7,0.3-1.2,0.8-1.3,1.6c-0.2,0.9,0.2,1.8,0.9,2.3l2.7,1.8
						l0.7-3.2c0.2-0.9-0.2-1.8-0.9-2.3C85.2,6.6,84.8,6.5,84.3,6.5z"/>
				</g>
			</g>
		</g>
		<g>
			<path class="st2" d="M92.4,4.7l-0.8-0.8l-0.3,0.7c-0.4,0.9-0.8,1.8-1.2,2.7c-0.4,0.9-0.2,2,0.5,2.8l0,0c1.3,1.2,3.4,0.8,4.1-0.8
				l0,0c0.4-0.9,0.2-2-0.5-2.8C93.6,6,93,5.3,92.4,4.7z"/>
			<path class="st3" d="M92.5,11.2c-0.7,0-1.5-0.3-2-0.8c-0.9-0.9-1.1-2.1-0.6-3.2l1.7-3.9l3,3c0.8,0.8,1.1,2,0.6,3.1
				c-0.4,0.9-1.2,1.5-2.1,1.7C92.8,11.2,92.6,11.2,92.5,11.2z M91.7,4.5l-1.3,3c-0.4,0.8-0.2,1.8,0.5,2.4c0.6,0.6,1.3,0.8,2,0.6
				c0.7-0.1,1.3-0.6,1.6-1.3c0.4-0.9,0.2-1.8-0.4-2.5L91.7,4.5z"/>
		</g>
		<g>
			<path class="st2" d="M76.5,10.8l-1-0.4l0,0.8c0,1,0,2-0.1,3c0,1,0.6,2,1.5,2.4l0.1,0c1.6,0.7,3.4-0.5,3.5-2.3l0-0.1
				c0-1-0.6-2-1.5-2.4C78.2,11.5,77.4,11.2,76.5,10.8z"/>
			<path class="st3" d="M78.1,17.1c-0.4,0-0.7-0.1-1.1-0.2c-1.1-0.5-1.8-1.5-1.8-2.7l0.1-4.2l3.9,1.6c1.1,0.4,1.8,1.5,1.7,2.6
				c0,1-0.5,1.9-1.3,2.4C79.1,16.9,78.6,17.1,78.1,17.1z M75.9,10.9l-0.1,3.3c0,0.9,0.5,1.7,1.4,2.1c0.7,0.3,1.5,0.2,2.1-0.2
				c0.6-0.4,1-1.1,1-1.8c0-1-0.5-1.8-1.3-2.1L75.9,10.9z"/>
		</g>
		<g>
			<path class="st2" d="M64.2,22.7l-1.1,0l0.3,0.7c0.4,0.9,0.7,1.9,1.1,2.8c0.4,1,1.3,1.6,2.3,1.6l0.1,0c1.8,0,3-1.8,2.3-3.4l0-0.1
				c-0.4-1-1.3-1.6-2.3-1.6C66,22.7,65.1,22.7,64.2,22.7z"/>
			<path class="st3" d="M66.9,28C66.9,28,66.9,28,66.9,28c-1.2,0-2.3-0.7-2.7-1.8l-1.5-3.9l4.2,0c1.2,0,2.2,0.7,2.6,1.8
				c0.4,0.9,0.3,1.9-0.3,2.7C68.7,27.6,67.8,28,66.9,28z M63.6,23l1.2,3c0.3,0.8,1.1,1.4,2,1.4c0,0,0,0,0,0c0.8,0,1.5-0.3,1.9-1
				c0.4-0.6,0.5-1.4,0.2-2c-0.4-0.9-1.2-1.4-2.1-1.4L63.6,23z"/>
		</g>
		<g>
			<path class="st2" d="M57.3,38.1l-1,0.4l0.5,0.5c0.7,0.7,1.4,1.4,2.1,2.2c0.7,0.7,1.8,1,2.8,0.6l0.1,0c1.6-0.7,2.1-2.8,0.9-4.1
				l0,0c-0.7-0.7-1.8-1-2.8-0.6C59,37.5,58.1,37.8,57.3,38.1z"/>
			<path class="st3" d="M60.7,42.3c-0.8,0-1.5-0.3-2-0.9l-2.9-3l3.9-1.6c1.1-0.4,2.3-0.2,3.1,0.7c0.7,0.7,1,1.7,0.8,2.6
				c-0.2,0.9-0.8,1.7-1.7,2C61.5,42.3,61.1,42.3,60.7,42.3z M56.9,38.7l2.3,2.4c0.6,0.7,1.6,0.9,2.4,0.5c0.7-0.3,1.2-0.9,1.4-1.6
				c0.2-0.7-0.1-1.4-0.6-2c-0.7-0.7-1.6-0.9-2.4-0.5L56.9,38.7z"/>
		</g>
		<g>
			<path class="st2" d="M56.9,55.7l-0.7,0.8l0.7,0.3c0.9,0.4,1.8,0.8,2.7,1.2c0.9,0.4,2,0.2,2.8-0.5l0,0c1.2-1.3,0.8-3.4-0.8-4.1
				l-0.1,0c-0.9-0.4-2-0.2-2.8,0.5C58.2,54.5,57.6,55.1,56.9,55.7z"/>
			<path class="st3" d="M60.6,58.5c-0.4,0-0.7-0.1-1.1-0.2l-3.9-1.6l3-3c0.8-0.8,2-1.1,3.1-0.6c0.9,0.4,1.5,1.2,1.7,2.1
				c0.2,0.9-0.1,1.9-0.8,2.5C62.1,58.2,61.4,58.5,60.6,58.5z M56.7,56.4l3,1.3c0.8,0.4,1.8,0.2,2.4-0.5c0.6-0.6,0.8-1.3,0.6-2
				c-0.1-0.7-0.6-1.3-1.3-1.6c-0.9-0.4-1.8-0.2-2.5,0.5L56.7,56.4z"/>
		</g>
		<g>
			<path class="st2" d="M63.2,71.5l-0.4,1l0.8,0c1,0,2,0,3,0c1,0,2-0.6,2.4-1.6l0-0.1c0.7-1.6-0.5-3.4-2.3-3.5l-0.1,0
				c-1,0-2,0.6-2.3,1.6C63.9,69.8,63.5,70.7,63.2,71.5z"/>
			<path class="st3" d="M66.5,72.8C66.5,72.8,66.5,72.8,66.5,72.8l-4.2-0.1l1.6-3.9c0.4-1.1,1.5-1.8,2.6-1.8c0,0,0,0,0,0
				c1,0,1.9,0.5,2.4,1.3c0.5,0.8,0.6,1.8,0.3,2.6C68.7,72.1,67.7,72.8,66.5,72.8z M63.2,72.2l3.3,0c0,0,0,0,0,0c0.9,0,1.7-0.5,2-1.4
				c0.3-0.7,0.2-1.5-0.2-2.1c-0.4-0.6-1.1-1-1.8-1c0,0,0,0,0,0c-0.9,0-1.7,0.5-2.1,1.4L63.2,72.2z"/>
		</g>
		<g>
			<path class="st2" d="M75.1,83.8l0,1.1l0.7-0.3c0.9-0.4,1.8-0.7,2.8-1.1c1-0.4,1.6-1.3,1.6-2.3l0-0.1c0-1.8-1.8-3-3.4-2.3l-0.1,0
				c-1,0.4-1.6,1.3-1.6,2.3C75.1,82,75.1,82.9,75.1,83.8z"/>
			<path class="st3" d="M74.8,85.3l0-4.2c0-1.2,0.7-2.2,1.8-2.6c0.9-0.4,1.9-0.3,2.7,0.3c0.8,0.5,1.2,1.4,1.2,2.3
				c0,1.2-0.7,2.3-1.8,2.7L74.8,85.3z M75.4,83.8l0,0.6l3-1.2c0.8-0.3,1.4-1.1,1.4-2c0-0.8-0.4-1.5-1-1.9c-0.6-0.4-1.4-0.5-2-0.2
				c-0.9,0.4-1.4,1.2-1.4,2.1L75.4,83.8z"/>
		</g>
		<g>
			<path class="st2" d="M90.6,90.6l0.4,1l0.5-0.5c0.7-0.7,1.4-1.4,2.1-2.1c0.7-0.7,1-1.8,0.6-2.8l0-0.1c-0.7-1.6-2.8-2.1-4.1-0.8
				l0,0c-0.7,0.7-1,1.8-0.6,2.8C89.9,88.9,90.3,89.7,90.6,90.6z"/>
			<path class="st3" d="M90.9,92.1l-1.6-3.9c-0.4-1.1-0.2-2.3,0.6-3.1c0.7-0.7,1.7-1,2.6-0.8c0.9,0.2,1.7,0.8,2,1.7
				c0.5,1.1,0.2,2.3-0.6,3.2L90.9,92.1z M90.9,90.4l0.2,0.6l2.4-2.3c0.7-0.6,0.8-1.6,0.5-2.4c-0.3-0.7-0.9-1.2-1.6-1.4
				c-0.7-0.1-1.4,0.1-2,0.6c-0.7,0.7-0.9,1.6-0.5,2.5L90.9,90.4z"/>
		</g>
		<g>
			<path class="st2" d="M107.5,90.9l0.8,0.8l0.3-0.7c0.4-0.9,0.8-1.8,1.2-2.7c0.4-0.9,0.2-2-0.5-2.8l0,0c-1.2-1.3-3.4-0.9-4.1,0.8
				l0,0c-0.4,0.9-0.2,2,0.5,2.8C106.2,89.7,106.8,90.3,107.5,90.9z"/>
			<path class="st3" d="M108.3,92.2l-3-3c-0.8-0.8-1-2-0.6-3.1c0.4-0.9,1.2-1.5,2.1-1.7c0.9-0.2,1.9,0.1,2.5,0.8
				c0.9,0.9,1.1,2.1,0.6,3.2L108.3,92.2z M107.7,90.7l0.4,0.4l1.3-3c0.4-0.8,0.2-1.8-0.5-2.4c-0.6-0.6-1.3-0.8-2-0.6
				c-0.7,0.1-1.3,0.6-1.6,1.3c-0.4,0.9-0.2,1.8,0.4,2.5L107.7,90.7z"/>
		</g>
		<g>
			<path class="st2" d="M123.3,84.9l1,0.4l0-0.8c0-1,0-2,0.1-3c0-1-0.6-2-1.5-2.4l-0.1,0c-1.6-0.7-3.4,0.5-3.5,2.3l0,0.1
				c0,1,0.6,2,1.5,2.4C121.7,84.2,122.5,84.5,123.3,84.9z"/>
			<path class="st3" d="M124.6,85.8l-1.4-0.6c-0.8-0.3-1.6-0.7-2.5-1c-1.1-0.5-1.7-1.5-1.7-2.7c0-1,0.5-1.8,1.3-2.4
				c0.8-0.5,1.8-0.6,2.6-0.2c1.1,0.5,1.8,1.5,1.8,2.7L124.6,85.8z M123.4,84.6l0.6,0.2l0.1-3.3c0-0.9-0.5-1.7-1.3-2.1
				c-0.7-0.3-1.5-0.2-2.1,0.2c-0.6,0.4-1,1.1-1,1.8c0,1,0.5,1.8,1.3,2.1C121.8,83.9,122.6,84.2,123.4,84.6L123.4,84.6z"/>
		</g>
		<g>
			<path class="st2" d="M135.7,73.1l1.1,0l-0.3-0.7c-0.4-0.9-0.7-1.9-1.1-2.8c-0.4-1-1.3-1.6-2.3-1.6l-0.1,0c-1.8,0-3,1.8-2.3,3.4
				l0,0.1c0.4,1,1.3,1.6,2.3,1.6C133.9,73.1,134.8,73.1,135.7,73.1z"/>
			<path class="st3" d="M137.3,73.4l-4.2,0c-1.2,0-2.2-0.7-2.6-1.8c-0.4-0.9-0.2-1.9,0.3-2.7c0.5-0.8,1.4-1.2,2.3-1.2
				c1.2,0,2.2,0.7,2.7,1.8L137.3,73.4z M135.7,72.8l0.6,0l-1.2-3.1c-0.3-0.8-1.1-1.4-2-1.4c0,0,0,0,0,0c-0.8,0-1.4,0.3-1.9,1
				c-0.4,0.6-0.5,1.4-0.2,2c0.3,0.9,1.1,1.4,2.1,1.4L135.7,72.8z"/>
		</g>
		<g>
			<path class="st2" d="M142.7,57.6l1-0.4l-0.5-0.5c-0.7-0.7-1.4-1.4-2.1-2.2c-0.7-0.7-1.8-1-2.8-0.6l-0.1,0c-1.6,0.7-2.1,2.8-0.9,4
				l0,0c0.7,0.7,1.8,1,2.8,0.6C141,58.3,141.8,58,142.7,57.6z"/>
			<path class="st3" d="M139.2,59.1c-0.8,0-1.5-0.3-2-0.9c-0.7-0.7-0.9-1.7-0.8-2.6c0.2-0.9,0.8-1.7,1.7-2c1.1-0.5,2.3-0.2,3.2,0.7
				l2.9,3l-3.9,1.6C139.9,59.1,139.6,59.1,139.2,59.1z M139.3,54.1c-0.3,0-0.6,0.1-0.8,0.2c-0.7,0.3-1.2,0.9-1.4,1.6
				c-0.2,0.7,0,1.4,0.6,2c0.7,0.7,1.6,0.9,2.4,0.6l3-1.2l-2.3-2.4C140.4,54.3,139.8,54.1,139.3,54.1z"/>
		</g>
		<g>
			<path class="st2" d="M143.1,40.1l0.8-0.8l-0.7-0.3c-0.9-0.4-1.8-0.8-2.7-1.2c-0.9-0.4-2-0.2-2.8,0.5l0,0
				c-1.2,1.3-0.8,3.4,0.8,4.1l0.1,0c0.9,0.4,2,0.2,2.8-0.5C141.8,41.3,142.5,40.7,143.1,40.1z"/>
			<path class="st3" d="M139.4,43c-0.4,0-0.8-0.1-1.1-0.2c-0.9-0.4-1.5-1.2-1.7-2.1c-0.2-0.9,0.1-1.9,0.8-2.5
				c0.9-0.9,2.1-1.1,3.2-0.6l3.9,1.7l-3,3C140.9,42.7,140.2,43,139.4,43z M139.4,37.9c-0.6,0-1.1,0.2-1.6,0.6
				c-0.6,0.6-0.8,1.3-0.6,2c0.1,0.7,0.6,1.3,1.3,1.6c0.9,0.4,1.8,0.2,2.5-0.4l2.3-2.3l-3-1.3C140,38,139.7,37.9,139.4,37.9z"/>
		</g>
		<g>
			<path class="st2" d="M136.9,24.3l0.4-1l-0.8,0c-1,0-2,0-3,0c-1,0-2,0.6-2.4,1.5l0,0.1c-0.7,1.6,0.5,3.4,2.3,3.5l0.1,0
				c1,0,2-0.6,2.4-1.5C136.2,25.9,136.6,25.1,136.9,24.3z"/>
			<path class="st3" d="M133.6,28.6C133.6,28.6,133.6,28.6,133.6,28.6c-1,0-1.9-0.5-2.4-1.3c-0.5-0.8-0.6-1.8-0.2-2.6
				c0.5-1.1,1.5-1.8,2.7-1.8l4.2,0.1l-1.6,3.9C135.7,27.9,134.7,28.6,133.6,28.6z M133.5,23.5c-0.9,0-1.7,0.5-2,1.4
				c-0.3,0.7-0.2,1.5,0.2,2.1c0.4,0.6,1.1,1,1.8,1c0.9,0,1.8-0.5,2.1-1.4l1.3-3L133.5,23.5C133.6,23.5,133.6,23.5,133.5,23.5z"/>
		</g>
		<g>
			<path class="st2" d="M125.1,11.9l0-1.1l-0.7,0.3c-0.9,0.4-1.9,0.7-2.8,1.1c-1,0.4-1.6,1.3-1.6,2.3l0,0.1c0,1.8,1.8,3,3.4,2.3
				l0.1,0c1-0.4,1.6-1.3,1.6-2.3C125.1,13.7,125.1,12.8,125.1,11.9z"/>
			<path class="st3" d="M122.5,17.4c-0.6,0-1.1-0.2-1.6-0.5c-0.8-0.5-1.2-1.4-1.2-2.3c0-1.2,0.7-2.3,1.8-2.7l3.9-1.5l0,4.2
				c0,1.2-0.7,2.2-1.8,2.6C123.3,17.4,122.9,17.4,122.5,17.4z M124.8,11.3l-3,1.2c-0.8,0.3-1.4,1.1-1.4,2c0,0.8,0.4,1.5,1,1.9
				c0.6,0.4,1.4,0.5,2,0.2c0.9-0.4,1.4-1.2,1.4-2.1L124.8,11.3z"/>
		</g>
		<g>
			<path class="st2" d="M109.6,5.1l-0.4-1l-0.5,0.5c-0.7,0.7-1.4,1.4-2.1,2.1c-0.7,0.7-1,1.8-0.6,2.8l0,0.1c0.7,1.6,2.8,2.1,4.1,0.8
				l0,0c0.7-0.7,1-1.8,0.6-2.8C110.2,6.7,109.9,5.9,109.6,5.1z"/>
			<path class="st3" d="M108.2,11.4c-0.2,0-0.4,0-0.6-0.1c-0.9-0.2-1.7-0.8-2-1.7c-0.5-1.1-0.2-2.3,0.6-3.2l3-2.9l1.6,3.9
				c0.4,1.1,0.2,2.3-0.6,3.1C109.7,11.1,109,11.4,108.2,11.4z M109.1,4.6l-2.4,2.3c-0.7,0.6-0.9,1.6-0.5,2.4
				c0.3,0.7,0.9,1.2,1.6,1.4c0.7,0.1,1.4-0.1,2-0.6c0.7-0.7,0.9-1.6,0.5-2.4L109.1,4.6z"/>
		</g>
	</g>
	<path class="st2" d="M100,83.7c-19.8,0-35.9-16.1-35.9-35.9c0-19.8,16.1-35.9,35.9-35.9s35.9,16.1,35.9,35.9
		C135.9,67.6,119.8,83.7,100,83.7z M100,12.9c-19.2,0-34.9,15.6-34.9,34.9S80.8,82.7,100,82.7s34.9-15.6,34.9-34.9
		S119.2,12.9,100,12.9z"/>
	<g>
		<g>
			<rect x="84.7" y="29.6" class="st2" width="30.3" height="33.1"/>
			<g>
				<path class="st3" d="M108.7,39.7h-9.5c-0.3,0-0.6-0.3-0.6-0.6c0-0.3,0.3-0.6,0.6-0.6h9.5c0.3,0,0.6,0.3,0.6,0.6
					C109.2,39.5,109,39.7,108.7,39.7z"/>
				<path class="st3" d="M108.7,43.7h-9.5c-0.3,0-0.6-0.3-0.6-0.6c0-0.3,0.3-0.6,0.6-0.6h9.5c0.3,0,0.6,0.3,0.6,0.6
					C109.2,43.5,109,43.7,108.7,43.7z"/>
				<g>
					<g>
						<path class="st3" d="M93.5,47.7v-1.1c-0.6,0-1.3-0.2-1.7-0.5l0.3-0.7c0.4,0.3,1,0.5,1.6,0.5c0.8,0,1.3-0.4,1.3-1.1
							c0-0.6-0.4-1-1.2-1.3c-1.1-0.4-1.8-0.9-1.8-1.9c0-0.9,0.6-1.6,1.7-1.8v-1.1h0.7v1.1c0.7,0,1.1,0.2,1.4,0.4l-0.3,0.7
							c-0.2-0.1-0.7-0.4-1.4-0.4c-0.8,0-1.2,0.5-1.2,0.9c0,0.6,0.4,0.9,1.4,1.3c1.1,0.5,1.7,1,1.7,2c0,0.9-0.6,1.7-1.7,1.9v1.1H93.5
							z"/>
						<path class="st3" d="M94.2,47.9h-0.7c-0.1,0-0.2-0.1-0.2-0.2v-1c-0.6,0-1.2-0.2-1.6-0.5c-0.1,0-0.1-0.1-0.1-0.2l0.3-0.7
							c0,0,0.1-0.1,0.1-0.1c0,0,0.1,0,0.1,0c0.4,0.3,1,0.4,1.5,0.4c0.7,0,1.1-0.4,1.1-0.9c0-0.5-0.3-0.8-1.1-1.2
							c-1-0.4-1.9-0.9-1.9-2c0-0.9,0.6-1.7,1.7-1.9v-1c0-0.1,0.1-0.2,0.2-0.2h0.7c0.1,0,0.2,0.1,0.2,0.2v0.9c0.5,0,1,0.2,1.3,0.4
							c0.1,0,0.1,0.1,0.1,0.2L95.5,41c0,0-0.1,0.1-0.1,0.1c0,0-0.1,0-0.1,0c-0.2-0.1-0.6-0.4-1.3-0.4c-0.7,0-1,0.4-1,0.8
							c0,0.5,0.3,0.7,1.3,1.1c1.3,0.5,1.8,1.2,1.8,2.2c0,1-0.7,1.8-1.7,2v1C94.3,47.8,94.3,47.9,94.2,47.9z M93.6,47.6H94v-1
							c0-0.1,0.1-0.1,0.1-0.2c1-0.2,1.6-0.8,1.6-1.7c0-0.9-0.5-1.4-1.6-1.9c-1-0.4-1.5-0.7-1.5-1.4c0-0.5,0.4-1.1,1.3-1.1
							c0.6,0,1,0.1,1.3,0.3l0.2-0.4c-0.4-0.2-0.8-0.3-1.2-0.3c-0.1,0-0.2-0.1-0.2-0.2v-0.9h-0.4v1c0,0.1-0.1,0.1-0.1,0.2
							c-0.9,0.2-1.5,0.8-1.5,1.6c0,0.8,0.5,1.3,1.7,1.8c0.7,0.3,1.3,0.7,1.3,1.5c0,0.7-0.6,1.2-1.5,1.2c-0.5,0-1.1-0.1-1.5-0.4
							L92,46.1c0.4,0.2,1,0.4,1.5,0.4c0.1,0,0.2,0.1,0.2,0.2V47.6z"/>
					</g>
				</g>
				<path class="st3" d="M108.7,47.8h-9.5c-0.3,0-0.6-0.3-0.6-0.6c0-0.3,0.3-0.6,0.6-0.6h9.5c0.3,0,0.6,0.3,0.6,0.6
					C109.2,47.5,109,47.8,108.7,47.8z"/>
				<path class="st3" d="M108.7,35.1H91.1c-0.3,0-0.6-0.3-0.6-0.6c0-0.3,0.3-0.6,0.6-0.6h17.5c0.3,0,0.6,0.3,0.6,0.6
					C109.2,34.8,109,35.1,108.7,35.1z"/>
			</g>
		</g>
		<g>
			<polygon class="st2" points="117.8,66 117.8,44.2 100,58.8 82.2,44.2 82.2,66 			"/>
			<polygon class="st3" points="100,59.6 81.7,44.8 82.7,43.5 100,57.5 117.3,43.6 118.3,44.8 			"/>
			
				<rect x="110.6" y="51.3" transform="matrix(0.6085 -0.7935 0.7935 0.6085 -4.3244 112.0787)" class="st3" width="1.6" height="18.3"/>
			
				<rect x="79.4" y="59.6" transform="matrix(0.7934 -0.6087 0.6087 0.7934 -18.4799 66.3925)" class="st3" width="18.3" height="1.6"/>
		</g>
	</g>
</g>
</svg>
