<?xml version="1.0" encoding="utf-8"?>
<!-- Generator: Adobe Illustrator 21.1.0, SVG Export Plug-In . SVG Version: 6.00 Build 0)  -->
<svg version="1.1" id="Calque_1" xmlns="http://www.w3.org/2000/svg" xmlns:xlink="http://www.w3.org/1999/xlink" x="0px" y="0px"
	 viewBox="0 0 40 40" style="enable-background:new 0 0 40 40;" xml:space="preserve">
<style type="text/css">
	.st0{fill:#D10000;}
</style>
<g>
	<path class="st0" d="M20,1.7c1.8,2.6,3.6,5.2,5.3,7.9c0.1,0.2,0.2,0.3,0,0.5c-1.8,2.6-3.5,5.2-5.3,7.8c0,0,0,0-0.1,0.1
		c-0.1-0.1-0.2-0.2-0.2-0.3c-1.7-2.5-3.4-5.1-5.2-7.6c-0.2-0.3-0.1-0.4,0.1-0.6c1.7-2.5,3.4-5.1,5.2-7.6C19.8,1.9,19.9,1.8,20,1.7
		C19.9,1.7,19.9,1.7,20,1.7z"/>
	<path class="st0" d="M20,22c1.8,2.6,3.6,5.2,5.3,7.9c0.1,0.2,0.2,0.3,0,0.5c-1.8,2.6-3.5,5.2-5.3,7.8c0,0,0,0-0.1,0.1
		c-0.1-0.1-0.2-0.2-0.2-0.3c-1.7-2.5-3.4-5.1-5.2-7.6c-0.2-0.3-0.1-0.4,0.1-0.6c1.7-2.5,3.4-5.1,5.2-7.6C19.8,22.2,19.9,22.1,20,22
		C19.9,22,19.9,22,20,22z"/>
	<path class="st0" d="M38.2,20c-2.6,1.8-5.2,3.6-7.9,5.3c-0.2,0.1-0.3,0.2-0.5,0c-2.6-1.8-5.2-3.5-7.8-5.3c0,0,0,0-0.1-0.1
		c0.1-0.1,0.2-0.2,0.3-0.2c2.5-1.7,5.1-3.4,7.6-5.2c0.3-0.2,0.4-0.1,0.6,0.1c2.5,1.7,5.1,3.4,7.6,5.2C38.1,19.9,38.2,19.9,38.2,20
		C38.2,20,38.2,20,38.2,20z"/>
	<path class="st0" d="M17.9,20c-2.6,1.8-5.2,3.6-7.9,5.3c-0.2,0.1-0.3,0.2-0.5,0c-2.6-1.8-5.2-3.5-7.8-5.3c0,0,0,0-0.1-0.1
		c0.1-0.1,0.2-0.2,0.3-0.2c2.5-1.7,5.1-3.4,7.6-5.2c0.3-0.2,0.4-0.1,0.6,0.1c2.5,1.7,5.1,3.4,7.6,5.2C17.8,19.9,17.9,19.9,17.9,20
		C17.9,20,17.9,20,17.9,20z"/>
</g>
</svg>
